com\citi\training\data\repository\MarketRepositoryTest.class
com\citi\training\data\services\MarketServiceTest.class
com\citi\training\data\repository\StrategiesRepositoryTest.class
com\citi\training\data\repository\JdbcTradeRepositoryTest.class
com\citi\training\data\entities\TradeTest.class
com\citi\training\data\services\StrategiesServiceTest.class
com\citi\training\data\services\TradeServiceTest.class
com\citi\training\data\entities\StrategiesTest.class
com\citi\training\data\entities\MarketTest.class
com\citi\training\data\entities\CustomerTest.class
com\citi\training\data\repository\InMemTradeRepositoryTest.class
com\citi\training\data\TestApplication.class
