C:\beanztockclean\simpleTradeData\src\main\java\com\citi\training\data\repository\TradeRepository.java
C:\beanztockclean\simpleTradeData\src\main\java\com\citi\training\data\services\MarketService.java
C:\beanztockclean\simpleTradeData\src\main\java\com\citi\training\data\entities\Trade.java
C:\beanztockclean\simpleTradeData\src\main\java\com\citi\training\data\repository\JdbcMarketRepository.java
C:\beanztockclean\simpleTradeData\src\main\java\com\citi\training\data\repository\InMemTradeRepository.java
C:\beanztockclean\simpleTradeData\src\main\java\com\citi\training\data\repository\JdbcTradeRepository.java
C:\beanztockclean\simpleTradeData\src\main\java\com\citi\training\data\services\StratService.java
C:\beanztockclean\simpleTradeData\src\main\java\com\citi\training\data\services\TradeService.java
C:\beanztockclean\simpleTradeData\src\main\java\com\citi\training\data\repository\JdbcStratRepository.java
C:\beanztockclean\simpleTradeData\src\main\java\com\citi\training\data\entities\Customer.java
C:\beanztockclean\simpleTradeData\src\main\java\com\citi\training\data\entities\Markets.java
C:\beanztockclean\simpleTradeData\src\main\java\com\citi\training\data\entities\Strategies.java
