-------------------------------------------------------------------------------
Test set: com.citi.training.TradeEngineApplicationTests
-------------------------------------------------------------------------------
Tests run: 1, Failures: 0, Errors: 0, Skipped: 0, Time elapsed: 6.273 s - in com.citi.training.TradeEngineApplicationTests
